{
    "result_query": [
        {
            "link": "http://www2.camara.leg.br/legin/fed/decret/1900-1909/decreto-748-29-dezembro-1900-585258-norma-pl.html",
            "title": "Decreto nº 748, de 29 de Dezembro de 1900"
        },
        {
            "link": "http://www2.camara.leg.br/legin/fed/lei/1900-1909/lei-746-29-dezembro-1900-586254-norma-pl.html",
            "title": "Lei nº 746, de 29 de Dezembro de 1900"
        }
    ],
    "atos": [
        {
            "nome":"decreto",
            "numero": "00748",
            "ano":"1900",
            "date": "1900/12/29",
            "origem": "Poder Legislativo",
            "situacao": "Não consta revogação expressa",
            "relacionada": "",
            "link_elem_txt": "",
            "elem_txt": {"url":"http://www2.camara.leg.br/legin/fed/decret/1900-1909/decreto-748-29-dezembro-1900-585258-publicacaooriginal-108267-pl.html", "context":""}
        },
        {
            "nome":"lei",
            "numero": "00746",
            "ano":"1900",
            "date": "1900/12/29",
            "origem": "Poder Legislativo",
            "situacao": "Não consta revogação expressa",
            "relacionada": "",
            "link_elem_txt": "",
            "elem_txt": {"url":"http://www2.camara.leg.br/legin/fed/lei/1900-1909/lei-746-29-dezembro-1900-586254-publicacaooriginal-109745-pl.html", "context":""}
        }
    ]
}
